## Autogenerated by Scribe. DO NOT MODIFY.

name: '4. Incoming Item Detail Management'
description: |-

  API endpoints for managing Incoming Item Detail
endpoints:
  -
    httpMethods:
      - GET
    uri: 'incoming-item/{incoming_item_id}/detail'
    metadata:
      groupName: '4. Incoming Item Detail Management'
      groupDescription: |-

        API endpoints for managing Incoming Item Detail
      subgroup: ''
      subgroupDescription: ''
      title: 'Display list of item detail from incoming item.'
      description: ''
      authenticated: true
      custom: []
    headers:
      Authorization: 'Bearer {YOUR_AUTH_KEY}'
      Content-Type: application/json
      Accept: application/json
    urlParameters:
      incoming_item_id:
        name: incoming_item_id
        description: 'The ID of the incoming item.'
        required: true
        example: 1
        type: integer
        enumValues: []
        exampleWasSpecified: false
        custom: []
    cleanUrlParameters:
      incoming_item_id: 1
    queryParameters: []
    cleanQueryParameters: []
    bodyParameters: []
    cleanBodyParameters: []
    fileParameters: []
    responses:
      -
        status: 200
        content: '{"message":"success get incoming item detail","current_page":1,"data":[{"id":19,"incoming_item_id":1,"item_id":5,"qty":100,"created_at":"2024-10-16T06:02:47.000000Z","updated_at":"2024-10-16T06:02:47.000000Z","item":{"id":5,"name":"Spidol Snowman Boardmarker"}},{"id":25,"incoming_item_id":1,"item_id":3,"qty":30,"created_at":"2024-10-16T06:02:47.000000Z","updated_at":"2024-10-16T06:02:47.000000Z","item":{"id":3,"name":"Kertas Sidu A4"}},{"id":27,"incoming_item_id":1,"item_id":3,"qty":54,"created_at":"2024-10-16T06:02:47.000000Z","updated_at":"2024-10-16T06:02:47.000000Z","item":{"id":3,"name":"Kertas Sidu A4"}},{"id":28,"incoming_item_id":1,"item_id":2,"qty":91,"created_at":"2024-10-16T06:02:47.000000Z","updated_at":"2024-10-16T06:02:47.000000Z","item":{"id":2,"name":"Buku Sidu 38 Lembar"}},{"id":50,"incoming_item_id":1,"item_id":4,"qty":34,"created_at":"2024-10-16T06:02:48.000000Z","updated_at":"2024-10-16T06:02:48.000000Z","item":{"id":4,"name":"Pulpen Joyko GP 265"}},{"id":66,"incoming_item_id":1,"item_id":1,"qty":79,"created_at":"2024-10-16T06:02:48.000000Z","updated_at":"2024-10-16T06:02:48.000000Z","item":{"id":1,"name":"Pulpen AE7"}},{"id":71,"incoming_item_id":1,"item_id":2,"qty":81,"created_at":"2024-10-16T06:02:48.000000Z","updated_at":"2024-10-16T06:02:48.000000Z","item":{"id":2,"name":"Buku Sidu 38 Lembar"}},{"id":82,"incoming_item_id":1,"item_id":4,"qty":76,"created_at":"2024-10-16T06:02:48.000000Z","updated_at":"2024-10-16T06:02:48.000000Z","item":{"id":4,"name":"Pulpen Joyko GP 265"}},{"id":83,"incoming_item_id":1,"item_id":2,"qty":27,"created_at":"2024-10-16T06:02:48.000000Z","updated_at":"2024-10-16T06:02:48.000000Z","item":{"id":2,"name":"Buku Sidu 38 Lembar"}},{"id":90,"incoming_item_id":1,"item_id":2,"qty":53,"created_at":"2024-10-16T06:02:48.000000Z","updated_at":"2024-10-16T06:02:48.000000Z","item":{"id":2,"name":"Buku Sidu 38 Lembar"}}],"first_page_url":"http:\/\/localhost:8000\/incoming-item\/1\/detail?page=1","from":1,"last_page":2,"last_page_url":"http:\/\/localhost:8000\/incoming-item\/1\/detail?page=2","links":[{"url":null,"label":"pagination.previous","active":false},{"url":"http:\/\/localhost:8000\/incoming-item\/1\/detail?page=1","label":"1","active":true},{"url":"http:\/\/localhost:8000\/incoming-item\/1\/detail?page=2","label":"2","active":false},{"url":"http:\/\/localhost:8000\/incoming-item\/1\/detail?page=2","label":"pagination.next","active":false}],"next_page_url":"http:\/\/localhost:8000\/incoming-item\/1\/detail?page=2","path":"http:\/\/localhost:8000\/incoming-item\/1\/detail","per_page":10,"prev_page_url":null,"to":10,"total":11}'
        headers:
          cache-control: 'no-cache, private'
          content-type: application/json
          vary: Origin
        description: null
        custom: []
    responseFields: []
    auth:
      - headers
      - Authorization
      - 'Bearer 1|5EpJKIU9HvY030Mcvut4avi1Kz2rW5X2IFe4EV9Q3fc49d39'
    controller: null
    method: null
    route: null
    custom: []
  -
    httpMethods:
      - POST
    uri: 'incoming-item/{incoming_item_id}/detail'
    metadata:
      groupName: '4. Incoming Item Detail Management'
      groupDescription: |-

        API endpoints for managing Incoming Item Detail
      subgroup: ''
      subgroupDescription: ''
      title: 'Store a newly created item detail form incoming item.'
      description: ''
      authenticated: true
      custom: []
    headers:
      Authorization: 'Bearer {YOUR_AUTH_KEY}'
      Content-Type: application/json
      Accept: application/json
    urlParameters:
      incoming_item_id:
        name: incoming_item_id
        description: 'The ID of the incoming item.'
        required: true
        example: 1
        type: integer
        enumValues: []
        exampleWasSpecified: false
        custom: []
    cleanUrlParameters:
      incoming_item_id: 1
    queryParameters: []
    cleanQueryParameters: []
    bodyParameters:
      item_id:
        name: item_id
        description: ''
        required: true
        example: 6
        type: integer
        enumValues: []
        exampleWasSpecified: false
        custom: []
      qty:
        name: qty
        description: ''
        required: true
        example: 6
        type: integer
        enumValues: []
        exampleWasSpecified: false
        custom: []
    cleanBodyParameters:
      item_id: 6
      qty: 6
    fileParameters: []
    responses:
      -
        status: 200
        content: '{"message":"success add item in detail","data":[{"id":19,"incoming_item_id":1,"item_id":5,"qty":100,"created_at":"2024-10-16T06:02:47.000000Z","updated_at":"2024-10-16T06:02:47.000000Z"},{"id":25,"incoming_item_id":1,"item_id":3,"qty":30,"created_at":"2024-10-16T06:02:47.000000Z","updated_at":"2024-10-16T06:02:47.000000Z"},{"id":27,"incoming_item_id":1,"item_id":3,"qty":54,"created_at":"2024-10-16T06:02:47.000000Z","updated_at":"2024-10-16T06:02:47.000000Z"},{"id":28,"incoming_item_id":1,"item_id":2,"qty":91,"created_at":"2024-10-16T06:02:47.000000Z","updated_at":"2024-10-16T06:02:47.000000Z"},{"id":50,"incoming_item_id":1,"item_id":4,"qty":34,"created_at":"2024-10-16T06:02:48.000000Z","updated_at":"2024-10-16T06:02:48.000000Z"},{"id":66,"incoming_item_id":1,"item_id":1,"qty":79,"created_at":"2024-10-16T06:02:48.000000Z","updated_at":"2024-10-16T06:02:48.000000Z"},{"id":71,"incoming_item_id":1,"item_id":2,"qty":81,"created_at":"2024-10-16T06:02:48.000000Z","updated_at":"2024-10-16T06:02:48.000000Z"},{"id":82,"incoming_item_id":1,"item_id":4,"qty":76,"created_at":"2024-10-16T06:02:48.000000Z","updated_at":"2024-10-16T06:02:48.000000Z"},{"id":83,"incoming_item_id":1,"item_id":2,"qty":27,"created_at":"2024-10-16T06:02:48.000000Z","updated_at":"2024-10-16T06:02:48.000000Z"},{"id":90,"incoming_item_id":1,"item_id":2,"qty":53,"created_at":"2024-10-16T06:02:48.000000Z","updated_at":"2024-10-16T06:02:48.000000Z"},{"id":93,"incoming_item_id":1,"item_id":5,"qty":62,"created_at":"2024-10-16T06:02:48.000000Z","updated_at":"2024-10-16T06:02:48.000000Z"},{"id":108,"incoming_item_id":1,"item_id":6,"qty":6,"created_at":"2024-10-16T07:02:31.000000Z","updated_at":"2024-10-16T07:02:31.000000Z"}]}'
        headers:
          cache-control: 'no-cache, private'
          content-type: application/json
          vary: Origin
        description: null
        custom: []
    responseFields: []
    auth:
      - headers
      - Authorization
      - 'Bearer 1|5EpJKIU9HvY030Mcvut4avi1Kz2rW5X2IFe4EV9Q3fc49d39'
    controller: null
    method: null
    route: null
    custom: []
  -
    httpMethods:
      - PUT
      - PATCH
    uri: 'incoming-item/{incoming_item_id}/detail/{id}'
    metadata:
      groupName: '4. Incoming Item Detail Management'
      groupDescription: |-

        API endpoints for managing Incoming Item Detail
      subgroup: ''
      subgroupDescription: ''
      title: 'Update the specified item detail.'
      description: ''
      authenticated: true
      custom: []
    headers:
      Authorization: 'Bearer {YOUR_AUTH_KEY}'
      Content-Type: application/json
      Accept: application/json
    urlParameters:
      incoming_item_id:
        name: incoming_item_id
        description: 'The ID of the incoming item.'
        required: true
        example: 1
        type: integer
        enumValues: []
        exampleWasSpecified: false
        custom: []
      id:
        name: id
        description: 'The ID of the detail.'
        required: true
        example: 1
        type: integer
        enumValues: []
        exampleWasSpecified: false
        custom: []
    cleanUrlParameters:
      incoming_item_id: 1
      id: 1
    queryParameters: []
    cleanQueryParameters: []
    bodyParameters:
      item_id:
        name: item_id
        description: ''
        required: false
        example: 6
        type: integer
        enumValues: []
        exampleWasSpecified: false
        custom: []
      qty:
        name: qty
        description: ''
        required: false
        example: 6
        type: integer
        enumValues: []
        exampleWasSpecified: false
        custom: []
    cleanBodyParameters:
      item_id: 6
      qty: 6
    fileParameters: []
    responses:
      -
        status: 200
        content: '{"message":"success update incoming item detail","data":{"id":1,"incoming_item_id":4,"item_id":6,"qty":6,"created_at":"2024-10-16T06:02:47.000000Z","updated_at":"2024-10-16T07:02:31.000000Z"}}'
        headers:
          cache-control: 'no-cache, private'
          content-type: application/json
          vary: Origin
        description: null
        custom: []
    responseFields: []
    auth:
      - headers
      - Authorization
      - 'Bearer 1|5EpJKIU9HvY030Mcvut4avi1Kz2rW5X2IFe4EV9Q3fc49d39'
    controller: null
    method: null
    route: null
    custom: []
  -
    httpMethods:
      - DELETE
    uri: 'incoming-item/{incoming_item_id}/detail/{id}'
    metadata:
      groupName: '4. Incoming Item Detail Management'
      groupDescription: |-

        API endpoints for managing Incoming Item Detail
      subgroup: ''
      subgroupDescription: ''
      title: 'Remove the specified item detail.'
      description: ''
      authenticated: true
      custom: []
    headers:
      Authorization: 'Bearer {YOUR_AUTH_KEY}'
      Content-Type: application/json
      Accept: application/json
    urlParameters:
      incoming_item_id:
        name: incoming_item_id
        description: 'The ID of the incoming item.'
        required: true
        example: 1
        type: integer
        enumValues: []
        exampleWasSpecified: false
        custom: []
      id:
        name: id
        description: 'The ID of the detail.'
        required: true
        example: 1
        type: integer
        enumValues: []
        exampleWasSpecified: false
        custom: []
    cleanUrlParameters:
      incoming_item_id: 1
      id: 1
    queryParameters: []
    cleanQueryParameters: []
    bodyParameters: []
    cleanBodyParameters: []
    fileParameters: []
    responses:
      -
        status: 200
        content: '{"message":"success delete incoming item detail","data":[{"id":19,"incoming_item_id":1,"item_id":5,"qty":100,"created_at":"2024-10-16T06:02:47.000000Z","updated_at":"2024-10-16T06:02:47.000000Z"},{"id":25,"incoming_item_id":1,"item_id":3,"qty":30,"created_at":"2024-10-16T06:02:47.000000Z","updated_at":"2024-10-16T06:02:47.000000Z"},{"id":27,"incoming_item_id":1,"item_id":3,"qty":54,"created_at":"2024-10-16T06:02:47.000000Z","updated_at":"2024-10-16T06:02:47.000000Z"},{"id":28,"incoming_item_id":1,"item_id":2,"qty":91,"created_at":"2024-10-16T06:02:47.000000Z","updated_at":"2024-10-16T06:02:47.000000Z"},{"id":50,"incoming_item_id":1,"item_id":4,"qty":34,"created_at":"2024-10-16T06:02:48.000000Z","updated_at":"2024-10-16T06:02:48.000000Z"},{"id":66,"incoming_item_id":1,"item_id":1,"qty":79,"created_at":"2024-10-16T06:02:48.000000Z","updated_at":"2024-10-16T06:02:48.000000Z"},{"id":71,"incoming_item_id":1,"item_id":2,"qty":81,"created_at":"2024-10-16T06:02:48.000000Z","updated_at":"2024-10-16T06:02:48.000000Z"},{"id":82,"incoming_item_id":1,"item_id":4,"qty":76,"created_at":"2024-10-16T06:02:48.000000Z","updated_at":"2024-10-16T06:02:48.000000Z"},{"id":83,"incoming_item_id":1,"item_id":2,"qty":27,"created_at":"2024-10-16T06:02:48.000000Z","updated_at":"2024-10-16T06:02:48.000000Z"},{"id":90,"incoming_item_id":1,"item_id":2,"qty":53,"created_at":"2024-10-16T06:02:48.000000Z","updated_at":"2024-10-16T06:02:48.000000Z"},{"id":93,"incoming_item_id":1,"item_id":5,"qty":62,"created_at":"2024-10-16T06:02:48.000000Z","updated_at":"2024-10-16T06:02:48.000000Z"}]}'
        headers:
          cache-control: 'no-cache, private'
          content-type: application/json
          vary: Origin
        description: null
        custom: []
    responseFields: []
    auth:
      - headers
      - Authorization
      - 'Bearer 1|5EpJKIU9HvY030Mcvut4avi1Kz2rW5X2IFe4EV9Q3fc49d39'
    controller: null
    method: null
    route: null
    custom: []
