## Autogenerated by Scribe. DO NOT MODIFY.

name: '7. Submission Item Management'
description: |-

  API endpoints for managing submission item
endpoints:
  -
    httpMethods:
      - GET
    uri: submission
    metadata:
      groupName: '7. Submission Item Management'
      groupDescription: |-

        API endpoints for managing submission item
      subgroup: ''
      subgroupDescription: ''
      title: 'Display a listing of the resource.'
      description: ''
      authenticated: true
      custom: []
    headers:
      Authorization: 'Bearer {YOUR_AUTH_KEY}'
      Content-Type: application/json
      Accept: application/json
    urlParameters: []
    cleanUrlParameters: []
    queryParameters: []
    cleanQueryParameters: []
    bodyParameters: []
    cleanBodyParameters: []
    fileParameters: []
    responses:
      -
        status: 200
        content: '{"message":"success get all submission items","current_page":1,"data":[{"id":1,"code":"IN-001","division_id":4,"operator_id":3,"supervisor_id":1,"submission_session_id":1,"status":"diajukan","regarding":"biasa","note":null,"created_at":"2024-10-16T06:02:48.000000Z","updated_at":"2024-10-16T06:02:48.000000Z","division":{"id":4,"name":"Ani Nuraeni"}},{"id":2,"code":"IN-002","division_id":5,"operator_id":3,"supervisor_id":1,"submission_session_id":1,"status":"draf","regarding":"biasa","note":null,"created_at":"2024-10-16T06:02:48.000000Z","updated_at":"2024-10-16T06:02:48.000000Z","division":{"id":5,"name":"Zim zim"}},{"id":3,"code":"IN-003","division_id":4,"operator_id":3,"supervisor_id":1,"submission_session_id":1,"status":"disetujui","regarding":"biasa","note":null,"created_at":"2024-10-16T06:02:48.000000Z","updated_at":"2024-10-16T06:02:48.000000Z","division":{"id":4,"name":"Ani Nuraeni"}},{"id":4,"code":"IN-004","division_id":5,"operator_id":3,"supervisor_id":1,"submission_session_id":2,"status":"ditolak","regarding":"biasa","note":null,"created_at":"2024-10-16T06:02:48.000000Z","updated_at":"2024-10-16T06:02:48.000000Z","division":{"id":5,"name":"Zim zim"}},{"id":5,"code":"IN-005","division_id":5,"operator_id":3,"supervisor_id":1,"submission_session_id":2,"status":"diajukan","regarding":"biasa","note":null,"created_at":"2024-10-16T06:02:48.000000Z","updated_at":"2024-10-16T06:02:48.000000Z","division":{"id":5,"name":"Zim zim"}},{"id":6,"code":"IN-006","division_id":5,"operator_id":3,"supervisor_id":1,"submission_session_id":2,"status":"disetujui","regarding":"biasa","note":null,"created_at":"2024-10-16T06:02:48.000000Z","updated_at":"2024-10-16T06:02:48.000000Z","division":{"id":5,"name":"Zim zim"}},{"id":7,"code":"SI7596","division_id":3,"operator_id":3,"supervisor_id":1,"submission_session_id":1,"status":"draf","regarding":"Quae saepe iure quae exercitationem consequatur consequatur.","note":"Laudantium voluptas et qui omnis.","created_at":"2024-10-16T06:02:48.000000Z","updated_at":"2024-10-16T06:02:48.000000Z","division":{"id":3,"name":"Toni Kusmara"}},{"id":8,"code":"SI6200","division_id":1,"operator_id":3,"supervisor_id":1,"submission_session_id":1,"status":"ditolak","regarding":"Magnam et optio non ullam.","note":"Ea quasi dolor iure voluptas odio sint assumenda expedita.","created_at":"2024-10-16T06:02:48.000000Z","updated_at":"2024-10-16T06:02:48.000000Z","division":{"id":1,"name":"Yani"}},{"id":9,"code":"SI7498","division_id":4,"operator_id":3,"supervisor_id":1,"submission_session_id":2,"status":"diajukan","regarding":"Ut illo qui quae ratione dolor suscipit possimus.","note":"Libero reiciendis vel rerum nemo.","created_at":"2024-10-16T06:02:48.000000Z","updated_at":"2024-10-16T06:02:48.000000Z","division":{"id":4,"name":"Ani Nuraeni"}},{"id":10,"code":"SI5386","division_id":3,"operator_id":3,"supervisor_id":1,"submission_session_id":2,"status":"draf","regarding":"Repudiandae qui et voluptatem est.","note":"Ad molestias maiores impedit in quibusdam.","created_at":"2024-10-16T06:02:48.000000Z","updated_at":"2024-10-16T06:02:48.000000Z","division":{"id":3,"name":"Toni Kusmara"}}],"first_page_url":"http:\/\/localhost:8000\/submission?page=1","from":1,"last_page":2,"last_page_url":"http:\/\/localhost:8000\/submission?page=2","links":[{"url":null,"label":"pagination.previous","active":false},{"url":"http:\/\/localhost:8000\/submission?page=1","label":"1","active":true},{"url":"http:\/\/localhost:8000\/submission?page=2","label":"2","active":false},{"url":"http:\/\/localhost:8000\/submission?page=2","label":"pagination.next","active":false}],"next_page_url":"http:\/\/localhost:8000\/submission?page=2","path":"http:\/\/localhost:8000\/submission","per_page":10,"prev_page_url":null,"to":10,"total":11}'
        headers:
          cache-control: 'no-cache, private'
          content-type: application/json
          vary: Origin
        description: null
        custom: []
    responseFields: []
    auth:
      - headers
      - Authorization
      - 'Bearer 1|5EpJKIU9HvY030Mcvut4avi1Kz2rW5X2IFe4EV9Q3fc49d39'
    controller: null
    method: null
    route: null
    custom: []
  -
    httpMethods:
      - POST
    uri: submission
    metadata:
      groupName: '7. Submission Item Management'
      groupDescription: |-

        API endpoints for managing submission item
      subgroup: ''
      subgroupDescription: ''
      title: 'Store a new Submission item'
      description: ''
      authenticated: true
      custom: []
    headers:
      Authorization: 'Bearer {YOUR_AUTH_KEY}'
      Content-Type: application/json
      Accept: application/json
    urlParameters: []
    cleanUrlParameters: []
    queryParameters: []
    cleanQueryParameters: []
    bodyParameters:
      submission_session_id:
        name: submission_session_id
        description: required.
        required: false
        example: 3
        type: integer
        enumValues: []
        exampleWasSpecified: true
        custom: []
      division_id:
        name: division_id
        description: required.
        required: false
        example: 3
        type: integer
        enumValues: []
        exampleWasSpecified: true
        custom: []
      regarding:
        name: regarding
        description: ''
        required: true
        example: consequatur
        type: string
        enumValues: []
        exampleWasSpecified: false
        custom: []
      status:
        name: status
        description: ''
        required: true
        example: diajukan
        type: string
        enumValues:
          - draf
          - diajukan
        exampleWasSpecified: false
        custom: []
      code:
        name: code
        description: ''
        required: false
        example: consequatur
        type: string
        enumValues: []
        exampleWasSpecified: false
        custom: []
      note:
        name: note
        description: ''
        required: false
        example: consequatur
        type: string
        enumValues: []
        exampleWasSpecified: false
        custom: []
      items:
        name: items
        description: ''
        required: true
        example:
          - []
        type: 'object[]'
        enumValues: []
        exampleWasSpecified: false
        custom: []
      'items[].item_id':
        name: 'items[].item_id'
        description: ''
        required: true
        example: 6
        type: integer
        enumValues: []
        exampleWasSpecified: false
        custom: []
      'items[].qty':
        name: 'items[].qty'
        description: ''
        required: true
        example: 6
        type: integer
        enumValues: []
        exampleWasSpecified: false
        custom: []
    cleanBodyParameters:
      submission_session_id: 3
      division_id: 3
      regarding: consequatur
      status: diajukan
      code: consequatur
      note: consequatur
      items:
        -
          item_id: 6
          qty: 6
    fileParameters: []
    responses:
      -
        status: 200
        content: '{"message":"success create submission item","data":{"submission_session_id":3,"division_id":3,"code":"consequatur","note":"consequatur","status":"diajukan","regarding":"consequatur","updated_at":"2024-10-16T07:02:32.000000Z","created_at":"2024-10-16T07:02:32.000000Z","id":13}}'
        headers:
          cache-control: 'no-cache, private'
          content-type: application/json
          vary: Origin
        description: null
        custom: []
    responseFields: []
    auth:
      - headers
      - Authorization
      - 'Bearer 1|5EpJKIU9HvY030Mcvut4avi1Kz2rW5X2IFe4EV9Q3fc49d39'
    controller: null
    method: null
    route: null
    custom: []
  -
    httpMethods:
      - GET
    uri: 'submission/{id}'
    metadata:
      groupName: '7. Submission Item Management'
      groupDescription: |-

        API endpoints for managing submission item
      subgroup: ''
      subgroupDescription: ''
      title: 'Display the specified resource.'
      description: ''
      authenticated: true
      custom: []
    headers:
      Authorization: 'Bearer {YOUR_AUTH_KEY}'
      Content-Type: application/json
      Accept: application/json
    urlParameters:
      id:
        name: id
        description: 'The ID of the submission.'
        required: true
        example: 1
        type: integer
        enumValues: []
        exampleWasSpecified: false
        custom: []
    cleanUrlParameters:
      id: 1
    queryParameters: []
    cleanQueryParameters: []
    bodyParameters: []
    cleanBodyParameters: []
    fileParameters: []
    responses:
      -
        status: 200
        content: '{"message":"success get submission item","data":{"id":1,"code":"IN-001","division_id":4,"operator_id":3,"supervisor_id":1,"submission_session_id":1,"status":"diajukan","regarding":"biasa","note":null,"created_at":"2024-10-16T06:02:48.000000Z","updated_at":"2024-10-16T06:02:48.000000Z","division":{"id":4,"name":"Ani Nuraeni"},"details":[]}}'
        headers:
          cache-control: 'no-cache, private'
          content-type: application/json
          vary: Origin
        description: null
        custom: []
    responseFields: []
    auth:
      - headers
      - Authorization
      - 'Bearer 1|5EpJKIU9HvY030Mcvut4avi1Kz2rW5X2IFe4EV9Q3fc49d39'
    controller: null
    method: null
    route: null
    custom: []
  -
    httpMethods:
      - PUT
      - PATCH
    uri: 'submission/{id}'
    metadata:
      groupName: '7. Submission Item Management'
      groupDescription: |-

        API endpoints for managing submission item
      subgroup: ''
      subgroupDescription: ''
      title: 'Update the specified resource in storage.'
      description: ''
      authenticated: true
      custom: []
    headers:
      Authorization: 'Bearer {YOUR_AUTH_KEY}'
      Content-Type: application/json
      Accept: application/json
    urlParameters:
      id:
        name: id
        description: 'The ID of the submission.'
        required: true
        example: 1
        type: integer
        enumValues: []
        exampleWasSpecified: false
        custom: []
    cleanUrlParameters:
      id: 1
    queryParameters: []
    cleanQueryParameters: []
    bodyParameters:
      status:
        name: status
        description: ''
        required: true
        example: diajukan
        type: string
        enumValues:
          - draf
          - diajukan
        exampleWasSpecified: false
        custom: []
      regarding:
        name: regarding
        description: ''
        required: true
        example: consequatur
        type: string
        enumValues: []
        exampleWasSpecified: false
        custom: []
      note:
        name: note
        description: ''
        required: false
        example: consequatur
        type: string
        enumValues: []
        exampleWasSpecified: false
        custom: []
      division_id:
        name: division_id
        description: ''
        required: false
        example: null
        type: string
        enumValues: []
        exampleWasSpecified: false
        custom: []
    cleanBodyParameters:
      status: diajukan
      regarding: consequatur
      note: consequatur
    fileParameters: []
    responses:
      -
        status: 200
        content: '{"message":"success update submission item","data":{"id":1,"code":"IN-001","division_id":4,"operator_id":3,"supervisor_id":1,"submission_session_id":1,"status":"diajukan","regarding":"consequatur","note":"consequatur","created_at":"2024-10-16T06:02:48.000000Z","updated_at":"2024-10-16T07:02:32.000000Z"}}'
        headers:
          cache-control: 'no-cache, private'
          content-type: application/json
          vary: Origin
        description: null
        custom: []
    responseFields: []
    auth:
      - headers
      - Authorization
      - 'Bearer 1|5EpJKIU9HvY030Mcvut4avi1Kz2rW5X2IFe4EV9Q3fc49d39'
    controller: null
    method: null
    route: null
    custom: []
  -
    httpMethods:
      - DELETE
    uri: 'submission/{id}'
    metadata:
      groupName: '7. Submission Item Management'
      groupDescription: |-

        API endpoints for managing submission item
      subgroup: ''
      subgroupDescription: ''
      title: 'Remove the specified resource from storage.'
      description: ''
      authenticated: true
      custom: []
    headers:
      Authorization: 'Bearer {YOUR_AUTH_KEY}'
      Content-Type: application/json
      Accept: application/json
    urlParameters:
      id:
        name: id
        description: 'The ID of the submission.'
        required: true
        example: 1
        type: integer
        enumValues: []
        exampleWasSpecified: false
        custom: []
    cleanUrlParameters:
      id: 1
    queryParameters: []
    cleanQueryParameters: []
    bodyParameters: []
    cleanBodyParameters: []
    fileParameters: []
    responses:
      -
        status: 200
        content: '{"message":"success delete submission item"}'
        headers:
          cache-control: 'no-cache, private'
          content-type: application/json
          vary: Origin
        description: null
        custom: []
    responseFields: []
    auth:
      - headers
      - Authorization
      - 'Bearer 1|5EpJKIU9HvY030Mcvut4avi1Kz2rW5X2IFe4EV9Q3fc49d39'
    controller: null
    method: null
    route: null
    custom: []
