## Autogenerated by Scribe. DO NOT MODIFY.

name: 'Submission Item Management'
description: |-

  API endpoints for managing submission item
endpoints:
  -
    httpMethods:
      - GET
    uri: submission
    metadata:
      groupName: 'Submission Item Management'
      groupDescription: |-

        API endpoints for managing submission item
      subgroup: ''
      subgroupDescription: ''
      title: 'Display a listing of the resource.'
      description: ''
      authenticated: true
      custom: []
    headers:
      Authorization: 'Bearer {YOUR_AUTH_KEY}'
      Content-Type: application/json
      Accept: application/json
    urlParameters: []
    cleanUrlParameters: []
    queryParameters: []
    cleanQueryParameters: []
    bodyParameters: []
    cleanBodyParameters: []
    fileParameters: []
    responses:
      -
        status: 200
        content: '{"message":"success get all submission items","current_page":1,"data":[{"id":1,"code":"IN-001","division_id":4,"status":"diajukan","note":null,"created_at":"2024-10-06T04:04:56.000000Z","updated_at":"2024-10-06T04:04:56.000000Z","division":{"id":4,"name":"Ani Nuraeni"}},{"id":2,"code":"IN-002","division_id":5,"status":"draf","note":null,"created_at":"2024-10-06T04:04:56.000000Z","updated_at":"2024-10-06T04:04:56.000000Z","division":{"id":5,"name":"Zim zim"}},{"id":3,"code":"IN-003","division_id":4,"status":"disetujui","note":null,"created_at":"2024-10-06T04:04:56.000000Z","updated_at":"2024-10-06T04:04:56.000000Z","division":{"id":4,"name":"Ani Nuraeni"}},{"id":4,"code":"IN-004","division_id":5,"status":"ditolak","note":null,"created_at":"2024-10-06T04:04:56.000000Z","updated_at":"2024-10-06T04:04:56.000000Z","division":{"id":5,"name":"Zim zim"}},{"id":5,"code":"IN-005","division_id":5,"status":"diajukan","note":null,"created_at":"2024-10-06T04:04:56.000000Z","updated_at":"2024-10-06T04:04:56.000000Z","division":{"id":5,"name":"Zim zim"}},{"id":6,"code":"IN-006","division_id":5,"status":"disetujui","note":null,"created_at":"2024-10-06T04:04:56.000000Z","updated_at":"2024-10-06T04:04:56.000000Z","division":{"id":5,"name":"Zim zim"}},{"id":7,"code":"SI1911","division_id":1,"status":"diajukan","note":"Officia animi aut minima amet veritatis quia enim.","created_at":"2024-10-06T04:04:56.000000Z","updated_at":"2024-10-06T04:04:56.000000Z","division":{"id":1,"name":"Yani"}},{"id":8,"code":"SI6446","division_id":1,"status":"diajukan","note":"Eum tempore id nisi dolorem est.","created_at":"2024-10-06T04:04:56.000000Z","updated_at":"2024-10-06T04:04:56.000000Z","division":{"id":1,"name":"Yani"}},{"id":9,"code":"SI4833","division_id":5,"status":"ditolak","note":"Iste qui sit id ut.","created_at":"2024-10-06T04:04:56.000000Z","updated_at":"2024-10-06T04:04:56.000000Z","division":{"id":5,"name":"Zim zim"}},{"id":10,"code":"SI3940","division_id":1,"status":"ditolak","note":"Eius qui aut aut at aut consequatur.","created_at":"2024-10-06T04:04:56.000000Z","updated_at":"2024-10-06T04:04:56.000000Z","division":{"id":1,"name":"Yani"}}],"first_page_url":"http:\/\/localhost:8000\/submission?page=1","from":1,"last_page":2,"last_page_url":"http:\/\/localhost:8000\/submission?page=2","links":[{"url":null,"label":"pagination.previous","active":false},{"url":"http:\/\/localhost:8000\/submission?page=1","label":"1","active":true},{"url":"http:\/\/localhost:8000\/submission?page=2","label":"2","active":false},{"url":"http:\/\/localhost:8000\/submission?page=2","label":"pagination.next","active":false}],"next_page_url":"http:\/\/localhost:8000\/submission?page=2","path":"http:\/\/localhost:8000\/submission","per_page":10,"prev_page_url":null,"to":10,"total":11}'
        headers:
          cache-control: 'no-cache, private'
          content-type: application/json
          vary: Origin
        description: null
        custom: []
    responseFields: []
    auth:
      - headers
      - Authorization
      - 'Bearer 1|7MqxJ9338cIzHmyZpPxzWNH6SF9qc2DIShTzaZFD1e3476f3'
    controller: null
    method: null
    route: null
    custom: []
  -
    httpMethods:
      - POST
    uri: submission
    metadata:
      groupName: 'Submission Item Management'
      groupDescription: |-

        API endpoints for managing submission item
      subgroup: ''
      subgroupDescription: ''
      title: 'Store a newly created resource in storage.'
      description: ''
      authenticated: true
      custom: []
    headers:
      Authorization: 'Bearer {YOUR_AUTH_KEY}'
      Content-Type: application/json
      Accept: application/json
    urlParameters: []
    cleanUrlParameters: []
    queryParameters: []
    cleanQueryParameters: []
    bodyParameters:
      items:
        name: items
        description: ''
        required: true
        example:
          - []
        type: 'object[]'
        enumValues: []
        exampleWasSpecified: false
        custom: []
      'items[].item_id':
        name: 'items[].item_id'
        description: ''
        required: true
        example: 6
        type: integer
        enumValues: []
        exampleWasSpecified: false
        custom: []
      'items[].qty':
        name: 'items[].qty'
        description: ''
        required: true
        example: 6
        type: integer
        enumValues: []
        exampleWasSpecified: false
        custom: []
    cleanBodyParameters:
      items:
        -
          item_id: 6
          qty: 6
    fileParameters: []
    responses:
      -
        status: 500
        content: '{"message":"SQLSTATE[HY000]: General error: 1364 Field ''code'' doesn''t have a default value (Connection: mysql, SQL: insert into `submission_items` (`updated_at`, `created_at`) values (2024-10-06 04:40:27, 2024-10-06 04:40:27))"}'
        headers:
          cache-control: 'no-cache, private'
          content-type: application/json
          vary: Origin
        description: null
        custom: []
    responseFields: []
    auth:
      - headers
      - Authorization
      - 'Bearer 1|7MqxJ9338cIzHmyZpPxzWNH6SF9qc2DIShTzaZFD1e3476f3'
    controller: null
    method: null
    route: null
    custom: []
  -
    httpMethods:
      - GET
    uri: 'submission/{id}'
    metadata:
      groupName: 'Submission Item Management'
      groupDescription: |-

        API endpoints for managing submission item
      subgroup: ''
      subgroupDescription: ''
      title: 'Display the specified resource.'
      description: ''
      authenticated: true
      custom: []
    headers:
      Authorization: 'Bearer {YOUR_AUTH_KEY}'
      Content-Type: application/json
      Accept: application/json
    urlParameters:
      id:
        name: id
        description: 'The ID of the submission.'
        required: true
        example: 1
        type: integer
        enumValues: []
        exampleWasSpecified: false
        custom: []
    cleanUrlParameters:
      id: 1
    queryParameters: []
    cleanQueryParameters: []
    bodyParameters: []
    cleanBodyParameters: []
    fileParameters: []
    responses:
      -
        status: 200
        content: '{"message":"success get submission item","data":{"id":1,"code":"IN-001","division_id":4,"status":"diajukan","note":null,"created_at":"2024-10-06T04:04:56.000000Z","updated_at":"2024-10-06T04:04:56.000000Z","division":{"id":4,"name":"Ani Nuraeni"},"details":[]}}'
        headers:
          cache-control: 'no-cache, private'
          content-type: application/json
          vary: Origin
        description: null
        custom: []
    responseFields: []
    auth:
      - headers
      - Authorization
      - 'Bearer 1|7MqxJ9338cIzHmyZpPxzWNH6SF9qc2DIShTzaZFD1e3476f3'
    controller: null
    method: null
    route: null
    custom: []
  -
    httpMethods:
      - DELETE
    uri: 'submission/{id}'
    metadata:
      groupName: 'Submission Item Management'
      groupDescription: |-

        API endpoints for managing submission item
      subgroup: ''
      subgroupDescription: ''
      title: 'Remove the specified resource from storage.'
      description: ''
      authenticated: true
      custom: []
    headers:
      Authorization: 'Bearer {YOUR_AUTH_KEY}'
      Content-Type: application/json
      Accept: application/json
    urlParameters:
      id:
        name: id
        description: 'The ID of the submission.'
        required: true
        example: 1
        type: integer
        enumValues: []
        exampleWasSpecified: false
        custom: []
    cleanUrlParameters:
      id: 1
    queryParameters: []
    cleanQueryParameters: []
    bodyParameters: []
    cleanBodyParameters: []
    fileParameters: []
    responses:
      -
        status: 200
        content: '{"message":"success delete submission item"}'
        headers:
          cache-control: 'no-cache, private'
          content-type: application/json
          vary: Origin
        description: null
        custom: []
    responseFields: []
    auth:
      - headers
      - Authorization
      - 'Bearer 1|7MqxJ9338cIzHmyZpPxzWNH6SF9qc2DIShTzaZFD1e3476f3'
    controller: null
    method: null
    route: null
    custom: []
