name: '4. Incoming Item Detail Management'
description: |-

  API endpoints for managing Incoming Item Detail
endpoints:
  -
    httpMethods:
      - GET
    uri: 'incoming-item/{incoming_item_id}/detail'
    metadata:
      groupName: '4. Incoming Item Detail Management'
      groupDescription: |-

        API endpoints for managing Incoming Item Detail
      subgroup: ''
      subgroupDescription: ''
      title: 'Display list of item detail from incoming item.'
      description: ''
      authenticated: true
      custom: []
    headers:
      Authorization: 'Bearer {YOUR_AUTH_KEY}'
      Content-Type: application/json
      Accept: application/json
    urlParameters:
      incoming_item_id:
        name: incoming_item_id
        description: 'The ID of the incoming item.'
        required: true
        example: 1
        type: integer
        enumValues: []
        exampleWasSpecified: false
        custom: []
    cleanUrlParameters:
      incoming_item_id: 1
    queryParameters: []
    cleanQueryParameters: []
    bodyParameters: []
    cleanBodyParameters: []
    fileParameters: []
    responses:
      -
        status: 200
        content: '{"message":"success get incoming item detail","current_page":1,"data":[{"id":4,"incoming_item_id":1,"item_id":4,"qty":25,"created_at":"2024-10-06T04:04:56.000000Z","updated_at":"2024-10-06T04:04:56.000000Z","item":{"id":4,"name":"Pulpen Joyko GP 265"}},{"id":12,"incoming_item_id":1,"item_id":7,"qty":70,"created_at":"2024-10-06T04:04:56.000000Z","updated_at":"2024-10-06T04:04:56.000000Z","item":{"id":7,"name":"et"}},{"id":21,"incoming_item_id":1,"item_id":6,"qty":91,"created_at":"2024-10-06T04:04:56.000000Z","updated_at":"2024-10-06T04:04:56.000000Z","item":{"id":6,"name":"quo"}},{"id":26,"incoming_item_id":1,"item_id":3,"qty":12,"created_at":"2024-10-06T04:04:56.000000Z","updated_at":"2024-10-06T04:04:56.000000Z","item":{"id":3,"name":"Kertas Sidu A4"}},{"id":47,"incoming_item_id":1,"item_id":3,"qty":1,"created_at":"2024-10-06T04:04:56.000000Z","updated_at":"2024-10-06T04:04:56.000000Z","item":{"id":3,"name":"Kertas Sidu A4"}},{"id":53,"incoming_item_id":1,"item_id":5,"qty":59,"created_at":"2024-10-06T04:04:56.000000Z","updated_at":"2024-10-06T04:04:56.000000Z","item":{"id":5,"name":"Spidol Snowman Boardmarker"}},{"id":55,"incoming_item_id":1,"item_id":2,"qty":85,"created_at":"2024-10-06T04:04:56.000000Z","updated_at":"2024-10-06T04:04:56.000000Z","item":{"id":2,"name":"Buku Sidu 38 Lembar"}},{"id":56,"incoming_item_id":1,"item_id":5,"qty":42,"created_at":"2024-10-06T04:04:56.000000Z","updated_at":"2024-10-06T04:04:56.000000Z","item":{"id":5,"name":"Spidol Snowman Boardmarker"}},{"id":83,"incoming_item_id":1,"item_id":5,"qty":73,"created_at":"2024-10-06T04:04:56.000000Z","updated_at":"2024-10-06T04:04:56.000000Z","item":{"id":5,"name":"Spidol Snowman Boardmarker"}},{"id":86,"incoming_item_id":1,"item_id":10,"qty":17,"created_at":"2024-10-06T04:04:56.000000Z","updated_at":"2024-10-06T04:04:56.000000Z","item":{"id":10,"name":"ut"}}],"first_page_url":"http:\/\/localhost:8000\/incoming-item\/1\/detail?page=1","from":1,"last_page":2,"last_page_url":"http:\/\/localhost:8000\/incoming-item\/1\/detail?page=2","links":[{"url":null,"label":"pagination.previous","active":false},{"url":"http:\/\/localhost:8000\/incoming-item\/1\/detail?page=1","label":"1","active":true},{"url":"http:\/\/localhost:8000\/incoming-item\/1\/detail?page=2","label":"2","active":false},{"url":"http:\/\/localhost:8000\/incoming-item\/1\/detail?page=2","label":"pagination.next","active":false}],"next_page_url":"http:\/\/localhost:8000\/incoming-item\/1\/detail?page=2","path":"http:\/\/localhost:8000\/incoming-item\/1\/detail","per_page":10,"prev_page_url":null,"to":10,"total":13}'
        headers:
          cache-control: 'no-cache, private'
          content-type: application/json
          vary: Origin
        description: null
        custom: []
    responseFields: []
    auth:
      - headers
      - Authorization
      - 'Bearer 1|7MqxJ9338cIzHmyZpPxzWNH6SF9qc2DIShTzaZFD1e3476f3'
    controller: null
    method: null
    route: null
    custom: []
  -
    httpMethods:
      - POST
    uri: 'incoming-item/{incoming_item_id}/detail'
    metadata:
      groupName: '4. Incoming Item Detail Management'
      groupDescription: |-

        API endpoints for managing Incoming Item Detail
      subgroup: ''
      subgroupDescription: ''
      title: 'Store a newly created item detail form incoming item.'
      description: ''
      authenticated: true
      custom: []
    headers:
      Authorization: 'Bearer {YOUR_AUTH_KEY}'
      Content-Type: application/json
      Accept: application/json
    urlParameters:
      incoming_item_id:
        name: incoming_item_id
        description: 'The ID of the incoming item.'
        required: true
        example: 1
        type: integer
        enumValues: []
        exampleWasSpecified: false
        custom: []
    cleanUrlParameters:
      incoming_item_id: 1
    queryParameters: []
    cleanQueryParameters: []
    bodyParameters:
      item_id:
        name: item_id
        description: ''
        required: true
        example: 6
        type: integer
        enumValues: []
        exampleWasSpecified: false
        custom: []
      qty:
        name: qty
        description: ''
        required: true
        example: 6
        type: integer
        enumValues: []
        exampleWasSpecified: false
        custom: []
    cleanBodyParameters:
      item_id: 6
      qty: 6
    fileParameters: []
    responses:
      -
        status: 200
        content: '{"message":"success update incoming item detail","data":[{"id":4,"incoming_item_id":1,"item_id":4,"qty":25,"created_at":"2024-10-06T04:04:56.000000Z","updated_at":"2024-10-06T04:04:56.000000Z"},{"id":12,"incoming_item_id":1,"item_id":7,"qty":70,"created_at":"2024-10-06T04:04:56.000000Z","updated_at":"2024-10-06T04:04:56.000000Z"},{"id":21,"incoming_item_id":1,"item_id":6,"qty":97,"created_at":"2024-10-06T04:04:56.000000Z","updated_at":"2024-10-06T04:40:26.000000Z"},{"id":26,"incoming_item_id":1,"item_id":3,"qty":12,"created_at":"2024-10-06T04:04:56.000000Z","updated_at":"2024-10-06T04:04:56.000000Z"},{"id":47,"incoming_item_id":1,"item_id":3,"qty":1,"created_at":"2024-10-06T04:04:56.000000Z","updated_at":"2024-10-06T04:04:56.000000Z"},{"id":53,"incoming_item_id":1,"item_id":5,"qty":59,"created_at":"2024-10-06T04:04:56.000000Z","updated_at":"2024-10-06T04:04:56.000000Z"},{"id":55,"incoming_item_id":1,"item_id":2,"qty":85,"created_at":"2024-10-06T04:04:56.000000Z","updated_at":"2024-10-06T04:04:56.000000Z"},{"id":56,"incoming_item_id":1,"item_id":5,"qty":42,"created_at":"2024-10-06T04:04:56.000000Z","updated_at":"2024-10-06T04:04:56.000000Z"},{"id":83,"incoming_item_id":1,"item_id":5,"qty":73,"created_at":"2024-10-06T04:04:56.000000Z","updated_at":"2024-10-06T04:04:56.000000Z"},{"id":86,"incoming_item_id":1,"item_id":10,"qty":17,"created_at":"2024-10-06T04:04:56.000000Z","updated_at":"2024-10-06T04:04:56.000000Z"},{"id":88,"incoming_item_id":1,"item_id":6,"qty":32,"created_at":"2024-10-06T04:04:56.000000Z","updated_at":"2024-10-06T04:04:56.000000Z"},{"id":90,"incoming_item_id":1,"item_id":6,"qty":14,"created_at":"2024-10-06T04:04:56.000000Z","updated_at":"2024-10-06T04:04:56.000000Z"},{"id":99,"incoming_item_id":1,"item_id":6,"qty":96,"created_at":"2024-10-06T04:04:56.000000Z","updated_at":"2024-10-06T04:04:56.000000Z"}]}'
        headers:
          cache-control: 'no-cache, private'
          content-type: application/json
          vary: Origin
        description: null
        custom: []
    responseFields: []
    auth:
      - headers
      - Authorization
      - 'Bearer 1|7MqxJ9338cIzHmyZpPxzWNH6SF9qc2DIShTzaZFD1e3476f3'
    controller: null
    method: null
    route: null
    custom: []
  -
    httpMethods:
      - PUT
      - PATCH
    uri: 'incoming-item/{incoming_item_id}/detail/{id}'
    metadata:
      groupName: '4. Incoming Item Detail Management'
      groupDescription: |-

        API endpoints for managing Incoming Item Detail
      subgroup: ''
      subgroupDescription: ''
      title: 'Update the specified item detail.'
      description: ''
      authenticated: true
      custom: []
    headers:
      Authorization: 'Bearer {YOUR_AUTH_KEY}'
      Content-Type: application/json
      Accept: application/json
    urlParameters:
      incoming_item_id:
        name: incoming_item_id
        description: 'The ID of the incoming item.'
        required: true
        example: 1
        type: integer
        enumValues: []
        exampleWasSpecified: false
        custom: []
      id:
        name: id
        description: 'The ID of the detail.'
        required: true
        example: 1
        type: integer
        enumValues: []
        exampleWasSpecified: false
        custom: []
    cleanUrlParameters:
      incoming_item_id: 1
      id: 1
    queryParameters: []
    cleanQueryParameters: []
    bodyParameters:
      item_id:
        name: item_id
        description: ''
        required: false
        example: 6
        type: integer
        enumValues: []
        exampleWasSpecified: false
        custom: []
      qty:
        name: qty
        description: ''
        required: false
        example: 6
        type: integer
        enumValues: []
        exampleWasSpecified: false
        custom: []
    cleanBodyParameters:
      item_id: 6
      qty: 6
    fileParameters: []
    responses:
      -
        status: 200
        content: '{"message":"success update incoming item detail","data":{"id":1,"incoming_item_id":7,"item_id":6,"qty":6,"created_at":"2024-10-06T04:04:56.000000Z","updated_at":"2024-10-06T04:40:26.000000Z"}}'
        headers:
          cache-control: 'no-cache, private'
          content-type: application/json
          vary: Origin
        description: null
        custom: []
    responseFields: []
    auth:
      - headers
      - Authorization
      - 'Bearer 1|7MqxJ9338cIzHmyZpPxzWNH6SF9qc2DIShTzaZFD1e3476f3'
    controller: null
    method: null
    route: null
    custom: []
  -
    httpMethods:
      - DELETE
    uri: 'incoming-item/{incoming_item_id}/detail/{id}'
    metadata:
      groupName: '4. Incoming Item Detail Management'
      groupDescription: |-

        API endpoints for managing Incoming Item Detail
      subgroup: ''
      subgroupDescription: ''
      title: 'Remove the specified item detail.'
      description: ''
      authenticated: true
      custom: []
    headers:
      Authorization: 'Bearer {YOUR_AUTH_KEY}'
      Content-Type: application/json
      Accept: application/json
    urlParameters:
      incoming_item_id:
        name: incoming_item_id
        description: 'The ID of the incoming item.'
        required: true
        example: 1
        type: integer
        enumValues: []
        exampleWasSpecified: false
        custom: []
      id:
        name: id
        description: 'The ID of the detail.'
        required: true
        example: 1
        type: integer
        enumValues: []
        exampleWasSpecified: false
        custom: []
    cleanUrlParameters:
      incoming_item_id: 1
      id: 1
    queryParameters: []
    cleanQueryParameters: []
    bodyParameters: []
    cleanBodyParameters: []
    fileParameters: []
    responses:
      -
        status: 200
        content: '{"message":"success delete incoming item detail","data":[{"id":4,"incoming_item_id":1,"item_id":4,"qty":25,"created_at":"2024-10-06T04:04:56.000000Z","updated_at":"2024-10-06T04:04:56.000000Z"},{"id":12,"incoming_item_id":1,"item_id":7,"qty":70,"created_at":"2024-10-06T04:04:56.000000Z","updated_at":"2024-10-06T04:04:56.000000Z"},{"id":21,"incoming_item_id":1,"item_id":6,"qty":91,"created_at":"2024-10-06T04:04:56.000000Z","updated_at":"2024-10-06T04:04:56.000000Z"},{"id":26,"incoming_item_id":1,"item_id":3,"qty":12,"created_at":"2024-10-06T04:04:56.000000Z","updated_at":"2024-10-06T04:04:56.000000Z"},{"id":47,"incoming_item_id":1,"item_id":3,"qty":1,"created_at":"2024-10-06T04:04:56.000000Z","updated_at":"2024-10-06T04:04:56.000000Z"},{"id":53,"incoming_item_id":1,"item_id":5,"qty":59,"created_at":"2024-10-06T04:04:56.000000Z","updated_at":"2024-10-06T04:04:56.000000Z"},{"id":55,"incoming_item_id":1,"item_id":2,"qty":85,"created_at":"2024-10-06T04:04:56.000000Z","updated_at":"2024-10-06T04:04:56.000000Z"},{"id":56,"incoming_item_id":1,"item_id":5,"qty":42,"created_at":"2024-10-06T04:04:56.000000Z","updated_at":"2024-10-06T04:04:56.000000Z"},{"id":83,"incoming_item_id":1,"item_id":5,"qty":73,"created_at":"2024-10-06T04:04:56.000000Z","updated_at":"2024-10-06T04:04:56.000000Z"},{"id":86,"incoming_item_id":1,"item_id":10,"qty":17,"created_at":"2024-10-06T04:04:56.000000Z","updated_at":"2024-10-06T04:04:56.000000Z"},{"id":88,"incoming_item_id":1,"item_id":6,"qty":32,"created_at":"2024-10-06T04:04:56.000000Z","updated_at":"2024-10-06T04:04:56.000000Z"},{"id":90,"incoming_item_id":1,"item_id":6,"qty":14,"created_at":"2024-10-06T04:04:56.000000Z","updated_at":"2024-10-06T04:04:56.000000Z"},{"id":99,"incoming_item_id":1,"item_id":6,"qty":96,"created_at":"2024-10-06T04:04:56.000000Z","updated_at":"2024-10-06T04:04:56.000000Z"}]}'
        headers:
          cache-control: 'no-cache, private'
          content-type: application/json
          vary: Origin
        description: null
        custom: []
    responseFields: []
    auth:
      - headers
      - Authorization
      - 'Bearer 1|7MqxJ9338cIzHmyZpPxzWNH6SF9qc2DIShTzaZFD1e3476f3'
    controller: null
    method: null
    route: null
    custom: []
